<svg xmlns="http://www.w3.org/2000/svg" viewBox="0 0 18 20" width="18" height="20">
	<defs>
		<image width="24" height="24" id="img1" href="data:image/png;base64,iVBORw0KGgoAAAANSUhEUgAAABgAAAAYCAQAAABKfvVzAAAAR0lEQVR4AWOgM/gPhNjFKNcQyPASKIEbvmLwR1EPUk4AvkSzmDAcCA14AHU04KLJ0kAnP4xqeEUwJb1A1RDA8JKAcl8GOgEAnzK51IjsLIEAAAAASUVORK5CYII="/>
	</defs>
	<style>
		tspan { white-space:pre }
	</style>
	<g id="date select">
		<g id="Select_1">
			<use id="ic_date_range" href="#img1" transform="matrix(1,0,0,1,-3,-2)"/>
		</g>
	</g>
</svg>